
{
	"type": "minecraft:crafting_shaped",
	"pattern": ["BB", "BS", " S"],
	"mirrored": true,
	"key": {
		"S": {"ore": "stickWood", "type": "forge:ore_dict"},
		"B": {"ore": "blockEmerald", "type": "forge:ore_dict"}
	},
	"result": {
		"item": "blocktools:emerald_axe",
		"data": 0
	}
}
