
{
	"type": "minecraft:crafting_shaped",
	"pattern": ["B", "B", "S"],
	"mirrored": false,
	"key": {
		"S": {"ore": "stickWood", "type": "forge:ore_dict"},
		"B": {"ore": "blockIron", "type": "forge:ore_dict"}
	},
	"result": {
		"item": "blocktools:iron_sword",
		"data": 0
	}
}
