
{
	"type": "minecraft:crafting_shaped",
	"pattern": ["B", "S", "S"],
	"mirrored": false,
	"key": {
		"S": {"ore": "stickWood", "type": "forge:ore_dict"},
		"B": {"ore": "blockLead", "type": "forge:ore_dict"}
	},
	"result": {
		"item": "blocktools:lead_shovel",
		"data": 0
	}
}
