
{
	"type": "minecraft:crafting_shaped",
	"pattern": ["BBB", " S ", " S "],
	"mirrored": false,
	"key": {
		"S": {"ore": "stickWood", "type": "forge:ore_dict"},
		"B": {"ore": "blockPlatinum", "type": "forge:ore_dict"}
	},
	"result": {
		"item": "blocktools:platinum_pickaxe",
		"data": 0
	}
}
